^C:\Users\iulia\Desktop\TumorDetection\TumorDetection.vcxproj
C:\Users\iulia\Desktop\TumorDetection\Debug\TumorDetection.MyForm.resources
^C:\Users\iulia\Desktop\TumorDetection\TumorDetection.vcxproj
C:\Users\iulia\Desktop\TumorDetection\Debug\TumorDetection.MyForm.resources
^C:\Users\iulia\Desktop\TumorDetection\TumorDetection.vcxproj
C:\Users\iulia\Desktop\TumorDetection\Debug\TumorDetection.MyForm.resources
^C:\Users\iulia\Desktop\TumorDetection\TumorDetection.vcxproj
C:\Users\iulia\Desktop\TumorDetection\Debug\TumorDetection.MyForm.resources
^C:\Users\iulia\Desktop\TumorDetection\TumorDetection.vcxproj
C:\Users\iulia\Desktop\TumorDetection\Debug\TumorDetection.MyForm.resources
^C:\Users\iulia\Desktop\TumorDetection\TumorDetection.vcxproj
C:\Users\iulia\Desktop\TumorDetection\Debug\TumorDetection.MyForm.resources
^C:\Users\iulia\Desktop\TumorDetection\TumorDetection.vcxproj
C:\Users\iulia\Desktop\TumorDetection\Debug\TumorDetection.MyForm.resources
^C:\Users\iulia\Desktop\TumorDetection\TumorDetection.vcxproj
C:\Users\iulia\Desktop\TumorDetection\Debug\TumorDetection.MyForm.resources
^C:\Users\iulia\Desktop\TumorDetection\TumorDetection.vcxproj
C:\Users\iulia\Desktop\TumorDetection\Debug\TumorDetection.MyForm.resources
^C:\Users\iulia\Desktop\TumorDetection\TumorDetection.vcxproj
C:\Users\iulia\Desktop\TumorDetection\Debug\TumorDetection.MyForm.resources
^C:\Users\iulia\Desktop\TumorDetection\TumorDetection.vcxproj
C:\Users\iulia\Desktop\TumorDetection\Debug\TumorDetection.MyForm.resources
^C:\Users\iulia\Desktop\TumorDetection\TumorDetection.vcxproj
C:\Users\iulia\Desktop\TumorDetection\Debug\TumorDetection.MyForm.resources
^C:\Users\iulia\Desktop\TumorDetection\TumorDetection.vcxproj
C:\Users\iulia\Desktop\TumorDetection\Debug\TumorDetection.MyForm.resources
^C:\Users\iulia\Desktop\TumorDetection\TumorDetection.vcxproj
C:\Users\iulia\Desktop\TumorDetection\Debug\TumorDetection.MyForm.resources
^C:\Users\iulia\Desktop\TumorDetection\TumorDetection.vcxproj
C:\Users\iulia\Desktop\TumorDetection\Debug\TumorDetection.MyForm.resources
^C:\Users\iulia\Desktop\TumorDetection\TumorDetection.vcxproj
C:\Users\iulia\Desktop\TumorDetection\Debug\TumorDetection.MyForm.resources
^C:\Users\iulia\Desktop\TumorDetection\TumorDetection.vcxproj
C:\Users\iulia\Desktop\TumorDetection\Debug\TumorDetection.MyForm.resources
^C:\Users\iulia\Desktop\TumorDetection\TumorDetection.vcxproj
C:\Users\iulia\Desktop\TumorDetection\Debug\TumorDetection.MyForm.resources
^C:\Users\iulia\Desktop\TumorDetection\TumorDetection.vcxproj
C:\Users\iulia\Desktop\TumorDetection\Debug\TumorDetection.MyForm.resources
^C:\Users\iulia\Desktop\TumorDetection\TumorDetection.vcxproj
C:\Users\iulia\Desktop\TumorDetection\Debug\TumorDetection.MyForm.resources
^C:\Users\iulia\Desktop\TumorDetection\TumorDetection.vcxproj
C:\Users\iulia\Desktop\TumorDetection\Debug\TumorDetection.MyForm.resources
^C:\Users\iulia\Desktop\TumorDetection\TumorDetection.vcxproj
C:\Users\iulia\Desktop\TumorDetection\Debug\TumorDetection.MyForm.resources
^C:\Users\iulia\Desktop\TumorDetection\TumorDetection.vcxproj
C:\Users\iulia\Desktop\TumorDetection\Debug\TumorDetection.MyForm.resources
